spread value: 2000.000000
classification: 0.708861
spread value: 2100.000000
classification: 0.715190
spread value: 2200.000000
classification: 0.715190
spread value: 2300.000000
classification: 0.715190
spread value: 2400.000000
classification: 0.715190
spread value: 2500.000000
classification: 0.721519
spread value: 2600.000000
classification: 0.708861
spread value: 2700.000000
classification: 0.696203
spread value: 2800.000000
classification: 0.677215
spread value: 2900.000000
classification: 0.689873
