\relax 
\@writefile{toc}{\contentsline {section}{\numberline {0.1}Introduction}{1}}
\@writefile{toc}{\contentsline {section}{\numberline {0.2}Theory}{1}}
\@writefile{toc}{\contentsline {subsection}{\numberline {0.2.1}Feature Points}{1}}
\@writefile{toc}{\contentsline {subsection}{\numberline {0.2.2}Bilinear Interpolation}{2}}
\@writefile{toc}{\contentsline {subsection}{\numberline {0.2.3}Lucas-Kanade approach(1981)}{2}}
\@writefile{toc}{\contentsline {section}{\numberline {0.3}Algorithm and Methodology}{2}}
\@writefile{toc}{\contentsline {subsection}{\numberline {0.3.1}Iterative Lucas-Kanade Algorithm}{2}}
\@writefile{toc}{\contentsline {subsection}{\numberline {0.3.2}Main Overview}{2}}
\@writefile{toc}{\contentsline {subsection}{\numberline {0.3.3}Main files and duties}{3}}
\@writefile{toc}{\contentsline {subsection}{\numberline {0.3.4}Step-by-Step}{4}}
\@writefile{toc}{\contentsline {subsubsection}{FeatureEigenPoints::Add()}{4}}
\@writefile{toc}{\contentsline {subsubsection}{FeatureEigenPoints::AddWithMinDist()}{5}}
\@writefile{toc}{\contentsline {subsubsection}{FeatureEigenPoints::DistanceToNeighbor()}{5}}
\@writefile{toc}{\contentsline {subsubsection}{FeatureEigenPoints::Sort()}{6}}
\@writefile{toc}{\contentsline {subsubsection}{FeatureEigenPoints::GetFeatures()}{6}}
\@writefile{toc}{\contentsline {subsubsection}{FeatureEigenPoints::GetFeaturesIteratorBegin()}{6}}
\@writefile{toc}{\contentsline {subsubsection}{FeatureEigenPoints::GetFeaturesIteratorEnd()}{6}}
\@writefile{toc}{\contentsline {subsubsection}{LucasKanade::DetectMostSalientFeatures()}{7}}
\@writefile{toc}{\contentsline {subsubsection}{LucasKanade::Interpolate()}{7}}
\@writefile{toc}{\contentsline {subsubsection}{LucasKanade::InterpolateW()}{7}}
\@writefile{toc}{\contentsline {subsubsection}{LucasKanade::Compute2x2GradientMatrix()}{8}}
\@writefile{toc}{\contentsline {subsubsection}{LucasKanade::Compute2x1ErrorVector()}{8}}
\@writefile{toc}{\contentsline {subsubsection}{LucasKanade::Solve()}{8}}
\@writefile{toc}{\contentsline {subsubsection}{LucasKanade::SwapImages()}{9}}
\@writefile{toc}{\contentsline {subsubsection}{LucasKanade::DrawFeaturePoints()}{9}}
\@writefile{toc}{\contentsline {section}{\numberline {0.4}Results}{9}}
\@writefile{toc}{\contentsline {section}{\numberline {0.5}Discussion}{10}}
\@writefile{toc}{\contentsline {section}{\numberline {0.6}Conclusion}{11}}
